<svg style="width:24px;height:24px" viewBox="0 0 24 24" xmlns="http://www.w3.org/2000/svg">
  <path fill="currentColor" d="M11 18.95c-3.23-.23-5-1.5-5-1.95v-2.23c1.13.55 2.5.92 4 1.1 0-.66.04-1.33.21-1.98-1.71-.22-3.24-.73-4.21-1.44V9.64c1.43.81 3.5 1.33 5.82 1.36.03-.03.05-.07.08-.1 2.2-2.19 5.6-2.49 8.1-.87V7c0-2.21-3.58-4-8-4S4 4.79 4 7v10c0 2.21 3.59 4 8 4 .34 0 .68 0 1-.03-.38-.25-.76-.53-1.1-.87-.35-.36-.65-.74-.9-1.15M12 5c3.87 0 6 1.5 6 2s-2.13 2-6 2-6-1.5-6-2 2.13-2 6-2m8.31 12.9c.44-.69.69-1.52.69-2.4 0-2.5-2-4.5-4.5-4.5S12 13 12 15.5s2 4.5 4.5 4.5c.87 0 1.69-.25 2.38-.68L22 22.39 23.39 21l-3.08-3.1m-3.81.1a2.5 2.5 0 0 1 0-5 2.5 2.5 0 0 1 0 5z"/>
</svg>
