<svg style="width:24px;height:24px" viewBox="0 0 24 24" xmlns="http://www.w3.org/2000/svg">
  <path fill="currentColor" d="m 3.375,7 1.28,-1.25 9.23,9.25 6.74,6.72 -1.27,1.28 -3,-3 H 4.625 v -3 c 0,-1.86 2.61,-3.08 5.09,-3.64 L 3.375,7 m 17.25,10 v 2.18 l -1.9,-1.9 V 17 c 0,-0.26 -0.5,-0.65 -1.3,-1 l -2.8,-2.82 c 2.71,0.45 6,1.73 6,3.82 m -14.1,0 v 1.1 h 7.93 L 11.345,15 c -2.53,0.3 -4.82,1.45 -4.82,2 m 6.1,-13 a 4,4 0 0 1 4,4 c 0,1.95 -1.4,3.58 -3.25,3.93 L 8.695,7.25 A 4.004,4.004 0 0 1 12.625,4 m 0,2 a 2,2 0 0 0 -2,2 2,2 0 0 0 2,2 2,2 0 0 0 2,-2 2,2 0 0 0 -2,-2 z m 8.174999,-2 h 2 v 8 h -2 z m -3.5,0 h 2 v 8 h -2 z"/>
</svg>
