<svg style="width:24px;height:24px" viewBox="0 0 24 24" xmlns="http://www.w3.org/2000/svg">
  <path fill="currentColor" d="m12 21.175-1.45-1.32C5.4 15.185 2 12.095 2 8.325c0-3.09 2.42-5.5 5.5-5.5 1.74 0 3.41.81 4.5 2.08 1.09-1.27 2.76-2.08 4.5-2.08 3.08 0 5.5 2.41 5.5 5.5 0 3.77-3.4 6.86-8.55 11.53L12 21.175z"/>
</svg>
