<svg style="width:24px;height:24px" viewBox="0 0 24 24" xmlns="http://www.w3.org/2000/svg">
  <path fill="currentColor" d="m15 13-4-4v3H2v2h9v3m11-5h-2v9H4v-5h2v3h12v-8l-6-6-5 5H4l8-8 10 10z"/>
</svg>
