<svg style="width:24px;height:24px" viewBox="0 0 24 24" xmlns="http://www.w3.org/2000/svg">
  <path fill="currentColor" d="M9 11h6l3.995.021L19 12l-.049 1.005L15 13H9v3l-4-4 4-4v3m11 9V4h2v16z"/>
</svg>
