<svg style="width:24px;height:24px" viewBox="0 0 24 24" xmlns="http://www.w3.org/2000/svg">
  <path fill="currentColor" d="M12 22A10 10 0 0 1 2 12 10 10 0 0 1 12 2c5.5 0 10 4 10 9a6 6 0 0 1-6 6h-1.8c-.3 0-.5.2-.5.5 0 .1.1.2.1.3.4.5.6 1.1.6 1.7.1 1.4-1 2.5-2.4 2.5m0-18a8 8 0 0 0-8 8 8 8 0 0 0 8 8c.3 0 .5-.2.5-.5 0-.2-.1-.3-.1-.4-.4-.5-.6-1-.6-1.6 0-1.4 1.1-2.5 2.5-2.5H16a4 4 0 0 0 4-4c0-3.9-3.6-7-8-7m-5.5 6c.8 0 1.5.7 1.5 1.5S7.3 13 6.5 13 5 12.3 5 11.5 5.7 10 6.5 10m3-4c.8 0 1.5.7 1.5 1.5S10.3 9 9.5 9 8 8.3 8 7.5 8.7 6 9.5 6m5 0c.8 0 1.5.7 1.5 1.5S15.3 9 14.5 9 13 8.3 13 7.5 13.7 6 14.5 6m3 4c.8 0 1.5.7 1.5 1.5s-.7 1.5-1.5 1.5-1.5-.7-1.5-1.5.7-1.5 1.5-1.5z"/>
</svg>
