<svg style="width:24px;height:24px" viewBox="0 0 24 24" xmlns="http://www.w3.org/2000/svg">
  <path fill="currentColor" d="M12 3.625a6 6 0 0 0-6 6c0 4 6 10.75 6 10.75s6-6.75 6-10.75a6 6 0 0 0-6-6z"/>
</svg>
