<svg style="width:24px;height:24px" viewBox="0 0 24 24" xmlns="http://www.w3.org/2000/svg">
  <path fill="currentColor" d="M19 19H5V8h14m-3-7v2H8V1H6v2H5c-1.11 0-2 .89-2 2v14a2 2 0 0 0 2 2h14a2 2 0 0 0 2-2V5a2 2 0 0 0-2-2h-1V1"/>
  <path fill="currentColor" d="M8.965 9.994h1.27c.753 0 1.13.35 1.13 1.05v5.4c0 .707-.377 1.06-1.13 1.06h-1.23c-.753 0-1.13-.353-1.13-1.06v-1.28h1.08v1.12c0 .14.023.233.07.28.04.04.137.06.29.06h.61c.147 0 .24-.02.28-.06.047-.047.07-.14.07-.28v-1.85h-1.31c-.74 0-1.11-.357-1.11-1.07v-2.32c0-.7.37-1.05 1.11-1.05zm.33 3.59h.98v-2.37c0-.14-.023-.233-.07-.28-.04-.047-.133-.07-.28-.07h-.63c-.147 0-.243.023-.29.07-.047.047-.07.14-.07.28v2.02c0 .133.023.223.07.27.047.053.143.08.29.08zm5.656 2.7v-5.07c0-.14-.023-.233-.07-.28-.047-.047-.143-.07-.29-.07h-.64c-.147 0-.243.023-.29.07-.04.047-.06.14-.06.28v5.07c0 .14.02.233.06.28.047.04.143.06.29.06h.64c.147 0 .243-.02.29-.06.047-.047.07-.14.07-.28zm1.1-5.24v5.4c0 .707-.373 1.06-1.12 1.06h-1.31c-.753 0-1.13-.353-1.13-1.06v-5.4c0-.7.377-1.05 1.13-1.05h1.31c.747 0 1.12.35 1.12 1.05z"/>
</svg>
