<svg style="width:24px;height:24px" viewBox="0 0 24 24" xmlns="http://www.w3.org/2000/svg">
  <path fill="currentColor" d="M17.022 13.516a5 5 0 1 1-10.001-.001 5 5 0 0 1 10.001.001zM19 8H5v11h14zm-1-7v2h1a2 2 0 0 1 2 2v14a2 2 0 0 1-2 2H5a2 2 0 0 1-2-2V5c0-1.11.89-2 2-2h1V1h2v2h8V1z"/>
</svg>
